version="1.10"
tags={
	"Graphics"
}
name="Lampplus_beta-1"
picture="thumbnail.png"
supported_version="1.15.*"
path="C:/Users/gongz/OneDrive/Documents/Paradox Interactive/Hearts of Iron IV/mod/lampplus_beta-1"
